<svg width="740" height="355" viewBox="0 0 740 355" fill="none" xmlns="http://www.w3.org/2000/svg">
<rect width="740" height="355" fill="#FFB31A"/>
<mask id="mask0" mask-type="alpha" maskUnits="userSpaceOnUse" x="0" y="0" width="740" height="355">
<rect width="740" height="355" rx="120" fill="#0D7BF8"/>
</mask>
<g mask="url(#mask0)">
<circle cx="734.5" cy="200.5" r="122.5" fill="#FE860D" fill-opacity="0.25"/>
<circle cx="18" cy="241" r="169" fill="#FE860D" fill-opacity="0.25"/>
<circle cx="727" cy="245" r="37" fill="#FFC42E"/>
<circle cx="213" cy="26" r="37" fill="#FFC42E" fill-opacity="0.75"/>
<circle cx="190" cy="363" r="80" fill="#FFC42E"/>
<circle cx="388" cy="131" r="50" fill="#FFC42E"/>
<circle cx="459.5" cy="70.5" r="19.5" fill="#FFC42E" fill-opacity="0.5"/>
</g>
</svg>
