<svg xmlns="http://www.w3.org/2000/svg" width="60" height="60" fill="none" viewBox="0 0 60 60">
    <g clip-path="url(#a)">
        <path fill="#E9E3D5" d="M52.542 24.8a6.006 6.006 0 0 1-4.215-1.708.892.892 0 1 1 1.249-1.274c1.635 1.602 4.297 1.602 5.932 0a5.23 5.23 0 0 0 1.591-3.76 5.23 5.23 0 0 0-1.59-3.76c-2.75-2.693-7.223-2.696-9.97-.005a.892.892 0 0 1-1.248-1.275c3.435-3.365 9.027-3.362 12.466.006a7 7 0 0 1 2.126 5.034 7 7 0 0 1-2.127 5.034 6.005 6.005 0 0 1-4.214 1.707z"/>
        <path fill="#E9E3D5" d="M44.916 14.53a.892.892 0 0 1-.686-1.461c.07-.086 1.735-2.095 2.337-2.767.828-.923.835-2.076.018-2.936a1.4 1.4 0 0 0-1.02-.448 1.4 1.4 0 0 0-1.02.448c-.41.432-.41.907 0 1.339a.892.892 0 0 1-1.293 1.229c-1.063-1.118-1.063-2.679 0-3.797a3.168 3.168 0 0 1 4.626 0c1.46 1.536 1.467 3.739.017 5.356-.579.646-2.275 2.692-2.292 2.713a.89.89 0 0 1-.687.323zM48.39 3.7a.892.892 0 0 1-.892-.892c0-.735-.614-1.16-.62-1.165A.892.892 0 1 1 47.84.141c.535.343 1.442 1.29 1.442 2.667 0 .492-.4.892-.892.892zM44.9 3.885a.888.888 0 0 1-.596-.23c-.079-.07-.378-.154-.605-.168a.892.892 0 0 1 .099-1.781c.178.01 1.098.083 1.699.624a.892.892 0 0 1-.597 1.555zM59.107 14.008a.89.89 0 0 1-.739-.392c-.063-.093-.359-.252-.542-.308a.892.892 0 0 1 .52-1.707c.17.052 1.046.345 1.499 1.014a.892.892 0 0 1-.738 1.393z"/>
        <path fill="#00BD4F" d="M23.904 25.966a34.14 34.14 0 0 0-11.847 7.705l-10.79 10.79a4.325 4.325 0 0 0 0 6.117l8.155 8.155a4.325 4.325 0 0 0 6.116 0l10.79-10.79a34.135 34.135 0 0 0 7.706-11.847l-2.007-8.124-8.123-2.006z"/>
        <path fill="#00973C" d="M32.037 33.752a31.388 31.388 0 0 1-7.6 12.298h-.001l-10.79 10.791a1.648 1.648 0 0 1-2.333 0l-8.155-8.155a2.676 2.676 0 0 0-3.105-.492c.137.872.54 1.712 1.213 2.384l8.155 8.155a4.325 4.325 0 0 0 6.117 0l10.79-10.79a34.136 34.136 0 0 0 7.705-11.847l-1.146-4.64c-.304.745-.588 1.51-.85 2.294v.002z"/>
        <path fill="#FFCF5D" d="M34.576 34.599a34.137 34.137 0 0 1 8.247-13.344l1.438-1.438c-.592-.59-3.487-3.486-4.078-4.077l-1.438 1.437a34.14 34.14 0 0 1-13.344 8.247c-.504.168-1.002.351-1.497.542l10.13 10.13c.191-.495.374-.993.542-1.497z"/>
        <path fill="#FFB545" d="M48.337 15.74l-4.078-4.078a.72.72 0 0 0-1.02 0l-4.077 4.077a.72.72 0 0 0 0 1.02l4.078 4.078a.72.72 0 0 0 1.02 0l4.077-4.078a.72.72 0 0 0 0-1.02z"/>
        <path fill="#FFB545" d="M48.337 15.74l-1.31-1.311c-.439.247-.28.136-3.877 3.733a2.683 2.683 0 0 0-1.802.783c-4.881 4.882-7.517 9.57-9.4 15.064l2.086 2.087c1.089-2.821 2.452-8.504 9.206-15.26a.72.72 0 0 0 1.02 0l4.078-4.077a.72.72 0 0 0 0-1.02z"/>
        <path fill="#FFF9EB" d="M22.953 42.583l-3.69-3.69-1.846-1.846a2.61 2.61 0 0 0-3.69 0L6.264 44.51a2.61 2.61 0 0 0 0 3.69l1.846 1.845 3.69 3.69a2.61 2.61 0 0 0 3.69 0l7.463-7.462a2.61 2.61 0 0 0 0-3.69z"/>
        <path fill="#FF983B" d="M28.97 34.004a2.973 2.973 0 1 0 0-5.946 2.973 2.973 0 0 0 0 5.946z"/>
        <path fill="#CE795F" d="M55.347 1.974L52.475 5.16a.963.963 0 0 0 .119 1.36l1.27 1.06a.964.964 0 0 0 1.354-.118l2.877-3.192-2.748-2.296z"/>
        <path fill="#A05A4B" d="M55.567 4.49c-1.194-.998-1.576-2.297-.908-3.09.668-.793 2.02-.644 3.214.354s1.576 2.297.908 3.09c-.668.793-2.02.644-3.214-.354z"/>
    </g>
    <defs>
        <clipPath id="a">
            <path fill="#fff" d="M0 0h60v60H0z"/>
        </clipPath>
    </defs>
</svg>
