<svg xmlns="http://www.w3.org/2000/svg" width="21" height="17" fill="none" viewBox="0 0 21 17">
    <path stroke="#B31AFF" stroke-linecap="round" stroke-linejoin="round" stroke-width="3" d="M8.5 1.5l-7 7 7 7M2.5 8.5h17"/>
</svg>
